8 Solo Project – COMP/STAT112 Notebook
…
“This dataset is a co-production, thanks to my fellow mate Jordan for building a great comprehensive US dataset from which I could filter this.”

8.1.3 Importing map file

library(sf)

read_sf('../data/cb_2018_us_county_5m/cb_2018_us_county_5m.shp')

Simple feature collection with 3233 features and 9 fields
Geometry type: MULTIPOLYGON
Dimension:     XY
Bounding box:  xmin: -179.1473 ymin: -14.55255 xmax: 179.7785 ymax: 71.35256
Geodetic CRS:  NAD83
# A tibble: 3,233 × 10
   STATEFP COUNTYFP COUNTYNS AFFGEOID       GEOID NAME       LSAD   ALAND AWATER
   <chr>   <chr>    <chr>    <chr>          <chr> <chr>      <chr>  <dbl>  <dbl>
 1 39      071      01074048 0500000US39071 39071 Highland   06    1.43e9 1.22e7
 2 06      003      01675840 0500000US06003 06003 Alpine     06    1.91e9 1.26e7
 3 12      033      00295737 0500000US12033 12033 Escambia   06    1.70e9 5.64e8
 4 17      101      00424252 0500000US17101 17101 Lawrence   06    9.64e8 5.08e6
 5 28      153      00695797 0500000US28153 28153 Wayne      06    2.10e9 7.26e6
 6 28      141      00695791 0500000US28141 28141 Tishomingo 06    1.10e9 5.24e7
 7 30      089      01719578 0500000US30089 30089 Sanders    06    7.15e9 7.64e7
 8 36      001      00974099 0500000US36001 36001 Albany     06    1.35e9 2.71e7
 9 42      105      01213684 0500000US42105 42105 Potter     06    2.80e9 5.60e5
10 29      077      00758493 0500000US29077 29077 Greene     06    1.75e9 6.62e6
# ℹ 3,223 more rows
# ℹ 1 more variable: geometry <MULTIPOLYGON [°]>
…
