16 Joining – COMP/STAT112 Notebook
…
16.6.1 Part a

courses |>
  group_by(dept) |>
  summarize(dept_total_enroll = sum(enroll))

# A tibble: 40 × 2
   dept  dept_total_enroll
   <chr>             <int>
 1 A                    29
 2 B                   104
 3 C                  1336
 4 D                  2003
 5 E                   119
 6 F                  1587
 7 G                  1291
 8 H                   642
 9 I                   149
10 J                   858
# ℹ 30 more rows

16.6.2 Part b

grades |>
  left_join(gpa_conversion) |>
  group_by(sid) |>
  summarize(gpa = mean(gp, na.rm = TRUE))

Joining with `by = join_by(grade)`

# A tibble: 443 × 2
   sid      gpa
   <chr>  <dbl>
 1 S31185  2.41
 2 S31188  3.02
 3 S31191  3.21
 4 S31194  3.36
 5 S31197  3.35
 6 S31200  2.2 
 7 S31203  3.82
 8 S31206  2.46
 9 S31209  3.13
10 S31212  3.67
# ℹ 433 more rows
…
Joining with `by = join_by(grade)`
Joining with `by = join_by(sessionID)`

Warning in left_join(left_join(grades, gpa_conversion), courses): Detected an unexpected many-to-many relationship between `x` and `y`.
ℹ Row 64 of `x` matches multiple rows in `y`.
ℹ Row 807 of `y` matches multiple rows in `x`.
ℹ If a many-to-many relationship is expected, set `relationship =
  "many-to-many"` to silence this warning.

# A tibble: 364 × 2
   iid       gpa
   <chr>   <dbl>
 1 inst265  1.3 
 2 inst444  1.7 
 3 inst513  1.85
 4 inst200  2   
 5 inst507  2.2 
 6 inst445  2.3 
 7 inst420  2.6 
 8 inst262  2.65
 9 inst176  2.66
10 inst234  2.7 
# ℹ 354 more rows
…
