14 Dates – COMP/STAT112 Notebook
…
14.2.2 Exercise 2: More Selecting

# First: recall the variable names
names(penguins)

[1] "species"           "island"            "bill_length_mm"   
[4] "bill_depth_mm"     "flipper_length_mm" "body_mass_g"      
[7] "sex"               "year"             

# Use a shortcut to keep everything but the year and island variables
penguins |>
  select(-year, -island)

# A tibble: 344 × 6
   species bill_length_mm bill_depth_mm flipper_length_mm body_mass_g sex   
   <chr>            <dbl>         <dbl>             <dbl>       <dbl> <chr> 
 1 Adelie            39.1          18.7               181        3750 male  
 2 Adelie            39.5          17.4               186        3800 female
 3 Adelie            40.3          18                 195        3250 female
 4 Adelie            NA            NA                  NA          NA <NA>  
 5 Adelie            36.7          19.3               193        3450 female
 6 Adelie            39.3          20.6               190        3650 male  
 7 Adelie            38.9          17.8               181        3625 female
 8 Adelie            39.2          19.6               195        4675 male  
 9 Adelie            34.1          18.1               193        3475 <NA>  
10 Adelie            42            20.2               190        4250 <NA>  
# ℹ 334 more rows

# Use a shortcut to keep only species and the penguin characteristics measured in mm

penguins |>
  select(species, contains("mm"))

# A tibble: 344 × 4
   species bill_length_mm bill_depth_mm flipper_length_mm
   <chr>            <dbl>         <dbl>             <dbl>
 1 Adelie            39.1          18.7               181
 2 Adelie            39.5          17.4               186
 3 Adelie            40.3          18                 195
 4 Adelie            NA            NA                  NA
 5 Adelie            36.7          19.3               193
 6 Adelie            39.3          20.6               190
 7 Adelie            38.9          17.8               181
 8 Adelie            39.2          19.6               195
 9 Adelie            34.1          18.1               193
10 Adelie            42            20.2               190
# ℹ 334 more rows

# Use a shortcut to keep only species and bill-related measurements

penguins |> 
  select(species, contains("bill"))

# A tibble: 344 × 3
   species bill_length_mm bill_depth_mm
   <chr>            <dbl>         <dbl>
 1 Adelie            39.1          18.7
 2 Adelie            39.5          17.4
 3 Adelie            40.3          18  
 4 Adelie            NA            NA  
 5 Adelie            36.7          19.3
 6 Adelie            39.3          20.6
 7 Adelie            38.9          17.8
 8 Adelie            39.2          19.6
 9 Adelie            34.1          18.1
10 Adelie            42            20.2
# ℹ 334 more rows

# Use a shortcut to keep only species and the length-related characteristics

penguins |>
  select(species, contains("length"))

# A tibble: 344 × 3
   species bill_length_mm flipper_length_mm
   <chr>            <dbl>             <dbl>
 1 Adelie            39.1               181
 2 Adelie            39.5               186
 3 Adelie            40.3               195
 4 Adelie            NA                  NA
 5 Adelie            36.7               193
 6 Adelie            39.3               190
 7 Adelie            38.9               181
 8 Adelie            39.2               195
 9 Adelie            34.1               193
10 Adelie            42                 190
# ℹ 334 more rows

14.2.3 Exercise 3: Arranging, Counting, & Grouping by Multiple Vars

# Change this code to sort the penguins by species, and then island name
# NOTE: The first row should be an Adelie penguin living on Biscoe island
penguins |> 
  arrange(species) |>
  arrange(island)

# A tibble: 344 × 8
   species island bill_length_mm bill_depth_mm flipper_length_mm body_mass_g
   <chr>   <chr>           <dbl>         <dbl>             <dbl>       <dbl>
 1 Adelie  Biscoe           37.8          18.3               174        3400
 2 Adelie  Biscoe           37.7          18.7               180        3600
 3 Adelie  Biscoe           35.9          19.2               189        3800
 4 Adelie  Biscoe           38.2          18.1               185        3950
 5 Adelie  Biscoe           38.8          17.2               180        3800
 6 Adelie  Biscoe           35.3          18.9               187        3800
 7 Adelie  Biscoe           40.6          18.6               183        3550
 8 Adelie  Biscoe           40.5          17.9               187        3200
 9 Adelie  Biscoe           37.9          18.6               172        3150
10 Adelie  Biscoe           40.5          18.9               180        3950
# ℹ 334 more rows
# ℹ 2 more variables: sex <chr>, year <dbl>
…
14.3.1 Exercise 5: Warming Up

# How many days of data do we have for each state?
Birthdays |> 
  group_by(state) |>
  count()

# A tibble: 51 × 2
# Groups:   state [51]
   state     n
   <chr> <int>
 1 AK     7306
 2 AL     7312
 3 AR     7310
 4 AZ     7310
 5 CA     7325
 6 CO     7305
 7 CT     7312
 8 DC     7311
 9 DE     7307
10 FL     7307
# ℹ 41 more rows
…
# How many total births were there per state in this time period, sorted from low to high?
Birthdays |>
  group_by(state) |>
  mutate(state_totals = sum(births))

# A tibble: 372,864 × 8
# Groups:   state [51]
   state  year month   day date                wday  births state_totals
   <chr> <int> <int> <int> <dttm>              <ord>  <int>        <int>
 1 AK     1969     1     1 1969-01-01 00:00:00 Wed       14       185385
 2 AL     1969     1     1 1969-01-01 00:00:00 Wed      174      1206772
 3 AR     1969     1     1 1969-01-01 00:00:00 Wed       78       684220
 4 AZ     1969     1     1 1969-01-01 00:00:00 Wed       84       947234
 5 CA     1969     1     1 1969-01-01 00:00:00 Wed      824      7822785
 6 CO     1969     1     1 1969-01-01 00:00:00 Wed      100       946378
 7 CT     1969     1     1 1969-01-01 00:00:00 Wed       90       824338
 8 DC     1969     1     1 1969-01-01 00:00:00 Wed       88       425469
 9 DE     1969     1     1 1969-01-01 00:00:00 Wed       32       188705
10 FL     1969     1     1 1969-01-01 00:00:00 Wed      288      2624301
# ℹ 372,854 more rows
…
